PLAYER
Manchester United
David,Salut,28,CM,8,6,5,4,3,false,false
ALEx,Yaa,22,GK,7,7,7,7,7,true,true
razvan,maka,25,RB,2,3,6,6,6,false,false
jean,padureanu,39,CAM,6,7,8,9,3,false,false
tatic,tatic,26,GK,6,5,5,4,2,false,false
rares,alup,26,CDM,7,7,5,4,2,false,false
ana,ana,22,LB,5,5,5,4,2,false,false
yoyoy,yaya,29,ST,6,7,8,3,4,false,false